{
	"segments": {
		"right": [
			{
				"function": "powerline.segments.common.sys.cpu_load_percent",
				"priority": 50
			},
			{
				"function": "powerline.segments.common.bat.battery",
				"priority": 50
			},
      {
          "function": "powerline.segments.common.time.date",
          "name": "time",
          "args": {
              "format": "%H:%M:%S",
              "istime": true
          }
      }
		]
	}
}
